src                             Directory  ./src
main                            Directory  ./src/main
resources                       Directory  ./src/main/resources
java                            Directory  ./src/main/java
block7                          Directory  ./src/main/java/block7
buildinginfo                    Directory  ./src/main/java/block7/buildinginfo
SerializableJson.java           File  ./src/main/java/block7/buildinginfo/SerializableJson.java
objects                         Directory  ./src/main/java/block7/buildinginfo/objects
House.java                      File  ./src/main/java/block7/buildinginfo/objects/House.java
Person.java                     File  ./src/main/java/block7/buildinginfo/objects/Person.java
Flat.java                       File  ./src/main/java/block7/buildinginfo/objects/Flat.java
SerializableService.java        File  ./src/main/java/block7/buildinginfo/SerializableService.java
ReadStream.java                 File  ./src/main/java/block7/ReadStream.java
GetAllFileInFileTree.java       File  ./src/main/java/block7/GetAllFileInFileTree.java
Main.java                       File  ./src/main/java/block7/Main.java
test                            Directory  ./src/test
java                            Directory  ./src/test/java
block7                          Directory  ./src/test/java/block7
ReadStreamTest.java             File  ./src/test/java/block7/ReadStreamTest.java
